[gd_scene load_steps=3 format=2]

[ext_resource path="res://Dynamic2.tres" type="DynamicFont" id=1]
[ext_resource path="res://Scenes/Label.gd" type="Script" id=2]

[node name="GUI" type="MarginContainer"]
margin_left = 20.0
margin_top = 20.0
margin_right = 20.0
margin_bottom = 68.0
__meta__ = {
"_edit_use_anchors_": false
}

[node name="Label" type="Label" parent="."]
margin_bottom = 48.0
custom_fonts/font = ExtResource( 1 )
script = ExtResource( 2 )
