[gd_scene load_steps=6 format=2]

[ext_resource path="res://Scenes/Player.tscn" type="PackedScene" id=1]
[ext_resource path="res://Scenes/Area2D.tscn" type="PackedScene" id=2]
[ext_resource path="res://Assets/Familiar Looking Rocket.png" type="Texture" id=3]
[ext_resource path="res://Grass_Tileset.tres" type="TileSet" id=4]
[ext_resource path="res://Assets/kenney_platformerpack/PNG/Backgrounds/colored_desert.png" type="Texture" id=5]

[node name="Level 2" type="Node2D"]

[node name="Player" parent="." instance=ExtResource( 1 )]
position = Vector2( 130.679, 135.123 )
speed = 300

[node name="TileMap" type="TileMap" parent="."]
scale = Vector2( 0.5, 0.5 )
tile_set = ExtResource( 4 )
format = 1
tile_data = PoolIntArray( 65590, 0, 0, 65591, 0, 0, 65593, 0, 0, 65594, 0, 0, 65595, 0, 0, 65596, 0, 0, 65597, 0, 0, 65598, 0, 0, 65599, 0, 0, 65600, 0, 0, 65601, 0, 0, 65602, 0, 0, 65603, 0, 0, 65604, 0, 0, 65605, 0, 0, 65606, 0, 0, 131125, 0, 0, 131126, 0, 1, 131127, 0, 1, 196660, 0, 0, 196661, 0, 1, 196663, 0, 1, 196664, 0, 1, 196665, 0, 1, 196666, 0, 1, 196667, 0, 1, 196668, 0, 1, 196669, 0, 1, 196670, 0, 1, 196671, 0, 1, 196672, 0, 1, 196673, 0, 1, 196674, 0, 1, 196675, 0, 1, 196676, 0, 1, 196677, 0, 1, 196678, 0, 1, 262194, 0, 0, 262195, 0, 0, 262196, 0, 1, 262197, 0, 1, 262198, 0, 1, 262199, 0, 1, 262209, 0, 1, 262210, 0, 1, 262212, 0, 1, 262214, 0, 1, 327729, 0, 0, 327730, 0, 1, 327732, 0, 1, 327733, 0, 1, 327734, 0, 1, 327735, 0, 1, 327736, 0, 1, 327737, 0, 1, 327738, 0, 1, 327739, 0, 1, 327740, 0, 1, 327741, 0, 1, 327742, 0, 1, 327743, 0, 1, 327744, 0, 1, 327745, 0, 1, 327747, 0, 1, 327748, 0, 1, 327750, 0, 1, 327763, 0, 0, 327764, 0, 0, 327765, 0, 0, 327766, 0, 0, 327767, 0, 0, 327768, 0, 0, 327769, 0, 0, 393264, 0, 0, 393265, 0, 1, 393266, 0, 1, 393280, 0, 1, 393281, 0, 1, 393282, 0, 1, 393283, 0, 1, 393284, 0, 1, 393286, 0, 1, 393298, 0, 0, 458752, 0, 0, 458753, 0, 0, 458754, 0, 0, 458755, 0, 0, 458756, 0, 0, 458757, 0, 0, 458758, 0, 0, 458759, 0, 0, 458760, 0, 0, 458761, 0, 1, 458762, 0, 1, 458764, 0, 1, 458765, 0, 0, 458766, 0, 0, 458767, 0, 0, 458768, 0, 0, 458769, 0, 0, 458770, 0, 0, 458772, 0, 65543, 458773, 0, 65543, 458774, 0, 65543, 458775, 0, 65543, 458776, 0, 65543, 458778, 0, 0, 458779, 0, 0, 458780, 0, 0, 458781, 0, 0, 458782, 0, 0, 458784, 0, 65543, 458786, 0, 65543, 458788, 0, 65543, 458790, 0, 0, 458800, 0, 1, 458801, 0, 1, 458802, 0, 1, 458803, 0, 1, 458804, 0, 1, 458805, 0, 1, 458806, 0, 1, 458807, 0, 1, 458808, 0, 1, 458809, 0, 1, 458810, 0, 1, 458811, 0, 1, 458812, 0, 1, 458813, 0, 1, 458814, 0, 1, 458815, 0, 1, 458816, 0, 1, 458817, 0, 1, 458819, 0, 1, 458820, 0, 1, 458822, 0, 1, 458833, 0, 0, 458835, 0, 1, 458836, 0, 1, 458837, 0, 1, 458838, 0, 1, 458839, 0, 1, 458840, 0, 1, 458841, 0, 1, 524326, 0, 1, 524335, 0, 0, 524336, 0, 1, 524337, 0, 1, 524338, 0, 1, 524339, 0, 1, 524340, 0, 1, 524341, 0, 1, 524342, 0, 1, 524344, 0, 1, 524345, 0, 1, 524346, 0, 1, 524347, 0, 1, 524350, 0, 1, 524352, 0, 1, 524355, 0, 1, 524356, 0, 1, 524358, 0, 1, 524368, 0, 0, 524371, 0, 1, 524373, 0, 1, 524377, 0, 1, 589862, 0, 1, 589870, 0, 0, 589871, 0, 1, 589872, 0, 1, 589873, 0, 1, 589879, 0, 1, 589880, 0, 1, 589881, 0, 1, 589882, 0, 1, 589883, 0, 1, 589884, 0, 1, 589885, 0, 1, 589886, 0, 1, 589887, 0, 1, 589888, 0, 1, 589889, 0, 1, 589890, 0, 1, 589891, 0, 1, 589893, 0, 1, 589894, 0, 1, 589903, 0, 0, 589905, 0, 1, 589907, 0, 1, 589909, 0, 1, 589911, 0, 1, 589913, 0, 1, 655398, 0, 1, 655405, 0, 0, 655406, 0, 1, 655407, 0, 1, 655408, 0, 1, 655409, 0, 1, 655410, 0, 1, 655411, 0, 1, 655412, 0, 1, 655413, 0, 1, 655414, 0, 1, 655415, 0, 1, 655418, 0, 1, 655419, 0, 1, 655420, 0, 1, 655421, 0, 1, 655422, 0, 1, 655423, 0, 1, 655424, 0, 1, 655426, 0, 1, 655427, 0, 1, 655429, 0, 1, 655438, 0, 0, 655439, 0, 1, 655441, 0, 1, 655443, 0, 1, 655445, 0, 1, 655447, 0, 1, 655449, 0, 1, 720934, 0, 1, 720941, 0, 1, 720942, 0, 1, 720943, 0, 1, 720945, 0, 1, 720952, 0, 1, 720953, 0, 1, 720956, 0, 1, 720958, 0, 1, 720959, 0, 1, 720962, 0, 1, 720965, 0, 1, 720966, 0, 1, 720973, 0, 0, 720974, 0, 1, 720975, 0, 1, 720977, 0, 1, 720979, 0, 1, 720981, 0, 1, 720983, 0, 1, 720985, 0, 1, 786470, 0, 1, 786476, 0, 0, 786477, 0, 1, 786480, 0, 1, 786481, 0, 1, 786482, 0, 1, 786483, 0, 1, 786484, 0, 1, 786485, 0, 1, 786486, 0, 1, 786487, 0, 1, 786488, 0, 1, 786489, 0, 1, 786491, 0, 1, 786492, 0, 1, 786494, 0, 1, 786497, 0, 1, 786498, 0, 1, 786499, 0, 1, 786500, 0, 1, 786501, 0, 1, 786502, 0, 1, 786508, 0, 0, 786509, 0, 1, 786510, 0, 1, 786511, 0, 1, 786513, 0, 1, 852006, 0, 1, 852007, 0, 1, 852008, 0, 0, 852009, 0, 0, 852010, 0, 0, 852011, 0, 0, 852012, 0, 1, 852013, 0, 1, 852014, 0, 1, 852015, 0, 1, 852016, 0, 1, 852017, 0, 1, 852018, 0, 1, 852019, 0, 1, 852020, 0, 1, 852021, 0, 1, 852022, 0, 1, 852023, 0, 1, 852024, 0, 1, 852025, 0, 1, 852026, 0, 1, 852027, 0, 1, 852028, 0, 1, 852029, 0, 1, 852030, 0, 1, 852031, 0, 1, 852032, 0, 1, 852033, 0, 1, 852034, 0, 1, 852035, 0, 1, 852036, 0, 1, 852037, 0, 1, 852038, 0, 1 )

[node name="Sprite" type="Sprite" parent="."]
position = Vector2( 2788, 40 )
scale = Vector2( 0.5, 0.5 )
texture = ExtResource( 3 )

[node name="Area2D" parent="Sprite" instance=ExtResource( 2 )]
sceneName = "Win Screen"

[node name="Sprite2" type="Sprite" parent="."]

[node name="Area2D" parent="Sprite2" instance=ExtResource( 2 )]
position = Vector2( 1404, 704.44 )
scale = Vector2( 19.224, 1 )

[node name="ParallaxBackground" type="ParallaxBackground" parent="."]

[node name="ParallaxLayer" type="ParallaxLayer" parent="ParallaxBackground"]
motion_scale = Vector2( 0.1, 0.1 )

[node name="Sprite" type="Sprite" parent="ParallaxBackground/ParallaxLayer"]
position = Vector2( 327.138, -149.138 )
scale = Vector2( 2.07981, 1.80246 )
texture = ExtResource( 5 )
